<?xml version="1.0" encoding="utf-8"?>
<!-- Generator: Adobe Illustrator 21.0.0, SVG Export Plug-In . SVG Version: 6.00 Build 0)  -->
<svg version="1.1" id="Layer_1" xmlns="http://www.w3.org/2000/svg" xmlns:xlink="http://www.w3.org/1999/xlink" x="0px" y="0px"
	 viewBox="0 0 32 32" style="enable-background:new 0 0 32 32;" xml:space="preserve">
<style type="text/css">
	.st0{fill:#651511;}
	.st1{fill:#FFFFFF;}
</style>
<g>
	<circle class="st0" cx="16" cy="16" r="16"/>
	<g>
		<path class="st1" d="M6.6,8.9c0.3-0.2,0.6-0.3,0.9-0.4c0.1,0,0.1,0,0.2-0.1L8,8.3c0,0,0.1,0,0.2,0c1.3-0.4,2.6-0.5,4-0.4
			c0.7,0,1.3,0.2,1.9,0.3c0.1,0,0.2,0,0.2,0.1c0.9,0.3,1.8,0.7,2.6,1.3c0.3,0.2,0.5,0.5,0.8,0.8c0.2,0.2,0.4,0.4,0.5,0.6
			c0,0,0.1,0.1,0,0.1c-0.2,0.1-0.3,0.1-0.5,0.1c-0.2,0.1-0.5,0.1-0.7,0.1c-0.4,0.1-0.7,0.2-1,0.3c0,0-0.1,0.1-0.2,0.1
			c-0.7,0.3-1.3,0.7-1.9,1.1c-0.1,0-0.1,0.1-0.1,0.1c0,0.1-0.1,0.1-0.2,0.1c-0.1,0.1-0.1,0.1-0.2,0.2c-0.1,0.1-0.2,0.2-0.2,0.3
			c-0.4,0.4-0.7,0.8-0.9,1.3c0,0.1,0,0.1-0.1,0.2c-0.3,0.5-0.4,1.1-0.5,1.6c0,0.1,0,0.3-0.1,0.4s0,0.2,0,0.3c0,0.3,0,0.6,0,0.9l0,0
			c0,0.2,0,0.4,0.1,0.6c0.1,0.3,0.2,0.7,0.3,1c0.1,0.2,0,0.4-0.2,0.6c-0.7,0.7-1.4,1.3-2.2,1.9c-0.1,0.1-0.3,0.2-0.5,0.2
			c-0.3,0-0.6-0.3-0.6-0.6c0-0.4,0.1-0.8,0.1-1.2s0.1-0.8,0.2-1.2c0-0.1-0.1-0.1-0.2-0.2C8.3,19.2,8,19.1,7.7,19c0.1,0,0,0,0,0
			l-0.5-0.2c-0.1,0-0.1,0-0.2-0.1c-0.6-0.3-1.2-0.7-1.7-1.1c-0.2-0.1-0.3-0.2-0.4-0.4C4.4,16.6,4,16,3.8,15.3c0-0.1,0-0.2-0.1-0.3
			c-0.2-0.7-0.2-1.4-0.1-2.2c0.1-0.3,0.1-0.5,0.2-0.8c0,0,0-0.1,0.1-0.1l0,0c0-0.1,0-0.1,0.1-0.2c0.2-0.5,0.5-1,0.9-1.4
			c0-0.1,0.1-0.1,0.1-0.1C5.5,9.7,6,9.3,6.5,9C6.5,9,6.6,9,6.6,8.9z"/>
		<path class="st1" d="M27.8,15.3c-0.3-0.6-0.7-1-1.1-1.5c-0.1-0.1-0.1-0.1-0.2-0.2c-0.2-0.2-0.4-0.3-0.6-0.5
			c-1.3-0.8-2.7-1.3-4.2-1.4c-1-0.1-1.9,0-2.9,0.1c-0.1,0-0.3,0-0.4,0.1c-1.9,0.4-3.5,1.3-4.7,2.9c-0.1,0.1-0.1,0.2-0.2,0.3
			c-0.2,0.4-0.3,0.8-0.4,1.2c-0.2,0.8-0.2,1.7,0,2.5c0.2,0.6,0.5,1.3,0.9,1.8c0.6,0.8,1.4,1.4,2.4,1.7c0.1,0.1,0.1,0,0.2,0.1
			c0.3,0.1,0.6,0.2,0.9,0.3c0.1,0,0.1,0.1,0.2,0.1c0.3,0,0.6,0.1,0.9,0.2c0.1,0,0.3,0.1,0.3,0.2c0.1,0,0.1,0.1,0.2,0.1
			c1,0.8,1.9,1.6,2.8,2.4c0.2,0.2,0.5,0.4,0.9,0.2c0.1-0.1,0.2-0.1,0.2-0.2c0.1-0.2,0.2-0.4,0.1-0.6C23,24.8,23,24.5,23,24.2
			s-0.1-0.6-0.2-1s0-0.6,0.4-0.7c0.3-0.1,0.6-0.2,0.9-0.3c0.4-0.1,0.8-0.3,1.1-0.5c0.6-0.3,1.2-0.8,1.6-1.3c0-0.1,0.1-0.1,0.2-0.2
			c0.1-0.2,0.3-0.4,0.4-0.6c0.5-0.8,0.7-1.6,0.7-2.5C28.2,16.7,28.1,16,27.8,15.3z M26.3,19.3c0,0.1-0.1,0.1-0.1,0.2
			c-0.1,0.2-0.2,0.4-0.4,0.5c-0.1,0.2-0.3,0.3-0.4,0.4c-0.4,0.4-1,0.7-1.5,1c-0.1,0-0.1,0-0.2,0.1c-0.1,0-0.1,0-0.2,0.1
			c-0.5,0.2-1,0.3-1.6,0.4c-0.3,0.1-0.5,0.3-0.5,0.6c0,0.3,0.1,0.7,0.1,1c0,0.2,0,0.3,0,0.5c-0.4-0.3-0.8-0.6-1.2-1
			c-0.1-0.1-0.2-0.2-0.4-0.3c-0.6-0.5-1.4-0.8-2.2-0.9c-0.9-0.1-1.8-0.6-2.5-1.2c-0.2-0.1-0.4-0.3-0.5-0.5c0-0.1-0.1-0.1-0.2-0.2
			c-0.3-0.3-0.4-0.7-0.6-1c-0.1-0.1,0-0.2-0.1-0.2c-0.1-0.3-0.1-0.5-0.2-0.8c-0.1-0.5,0-1,0.2-1.5c0-0.1,0-0.1,0.1-0.2
			c0.3-0.7,0.8-1.3,1.4-1.8c0.4-0.3,0.9-0.6,1.4-0.8c0.1,0,0.1,0,0.2-0.1c0.3-0.1,0.7-0.2,1-0.3s0.6-0.1,0.9-0.2
			c0.6-0.1,1.1-0.1,1.7-0.1c0.7,0,1.4,0.1,2.1,0.3l0.8,0.2c0.1,0,0.1,0.1,0.2,0.1c0.7,0.3,1.3,0.7,1.9,1.2c0.6,0.6,1,1.3,1.1,2.1
			C26.9,17.7,26.7,18.5,26.3,19.3z"/>
		<path class="st1" d="M24.2,17.9c0,0.4-0.3,0.7-0.8,0.7c-0.6,0-0.8-0.4-0.8-0.7c0-0.5,0.3-0.7,0.8-0.7
			C23.8,17.2,24.2,17.5,24.2,17.9z"/>
		<path class="st1" d="M21.2,17.9c0,0.4-0.3,0.7-0.7,0.7c-0.1,0-0.2,0-0.3,0c-0.1,0-0.1,0-0.2-0.1c-0.4-0.3-0.4-0.6-0.3-0.9
			c0.1-0.4,0.6-0.6,1-0.4C21,17.3,21.3,17.6,21.2,17.9z"/>
		<path class="st1" d="M17.7,18.6c-0.5,0.1-0.8-0.1-0.9-0.4c-0.1-0.2-0.1-0.4,0-0.5c0.2-0.4,0.8-0.6,1.3-0.3c0.1,0,0.2,0.1,0.2,0.2
			c0.2,0.3,0.1,0.8-0.2,1C18,18.6,17.9,18.6,17.7,18.6z"/>
	</g>
</g>
</svg>
