<?xml version="1.0" encoding="utf-8"?>
<!-- Generator: Adobe Illustrator 21.0.0, SVG Export Plug-In . SVG Version: 6.00 Build 0)  -->
<svg version="1.1" id="Layer_1" xmlns="http://www.w3.org/2000/svg" xmlns:xlink="http://www.w3.org/1999/xlink" x="0px" y="0px"
	 viewBox="0 0 512 512" style="enable-background:new 0 0 512 512;" xml:space="preserve">
<style type="text/css">
	.st0{fill-rule:evenodd;clip-rule:evenodd;fill:#B3B3B3;}
	.st1{fill-rule:evenodd;clip-rule:evenodd;fill:#FFFFFF;}
	.st2{fill:#FFFFFF;}
	.st3{fill:#EC1C24;}
	.st4{fill:#1E88E5;}
	.st5{fill:#64A9DC;}
	.st6{fill:#65BC54;}
	.st7{fill-rule:evenodd;clip-rule:evenodd;fill:#8A0304;}
	.st8{fill-rule:evenodd;clip-rule:evenodd;fill:#EC1C24;}
</style>
<circle class="st4" cx="256" cy="256" r="256"/>
<g>
	<path class="st2" d="M256,85C153.3,85,70,162.1,70,257.2c0,54.2,27,102.5,69.3,134.1V457l63.3-34.8c16.9,4.7,34.8,7.2,53.4,7.2
		c102.7,0,186-77.1,186-172.2C442,162.1,358.7,85,256,85z"/>
	<polygon class="st4" points="279.6,337.9 220.9,275.3 106.2,337.9 232.3,204.1 292.5,266.7 405.8,204.1 	"/>
</g>
</svg>
