<?xml version="1.0" encoding="utf-8"?>
<!-- Generator: Adobe Illustrator 21.0.0, SVG Export Plug-In . SVG Version: 6.00 Build 0)  -->
<svg version="1.1" id="Layer_1" xmlns="http://www.w3.org/2000/svg" xmlns:xlink="http://www.w3.org/1999/xlink" x="0px" y="0px"
	 viewBox="0 0 640 166" style="enable-background:new 0 0 640 166;" xml:space="preserve">
<style type="text/css">
	.st0{fill:#C3232F;}
	.st1{fill:#711717;}
	.st2{fill:#C2232F;}
	.st3{fill:#FEFEFE;}
	.st4{fill:#741919;}
	.st5{fill:#791A1B;}
</style>
<path class="st0" d="M159.4,86c-0.1-1.3-1.3-2.3-2.6-2.2c-0.7,0-1.4,0.1-2,0.3c-3.3,1-5.9,3.1-8.6,4.9h-0.1c0,0.1,0.1,0.1,0.1,0.2
	c-1.1,1.1-2.3,2-3.5,2.8c0.9-1.6,1.6-3.2,2.4-4.8l0.1,0.3l0.3-0.6c0.8-2.2,1.2-4.5,1.3-6.8c0.1-3.5-0.6-6.9-1.8-10.2l-0.2-0.3
	l-0.1-0.2c-0.5-1-1-2-1.6-2.9c-2.2-3.6-4.8-6.6-9-7.9c-0.7-0.3-1.6-0.3-2.4-0.1c1.3-1.4,2.2-3.1,2.6-5v-0.1v-0.1
	c0.1-1.3,0.1-2.6,0-3.9c0.5,1.2,1,2.3,1.6,3.4l0,0l0.1,0.1l0,0c2.8,5.2,5.9,10.2,9.2,15l0,0l0.1,0.1c0.8,1.1,1.6,2.1,2.4,3.2
	c2.2,2.6,4.4,5.3,7.4,7.2c2,1.2,3,1,4.4-0.7c-0.1-0.5-0.1-0.9-0.1-1.4c0.3-3.3,0-6.6-1-9.7c-3-11.8-8.5-22.8-16-32.3
	c-2.8-3.9-6.3-7.4-10.3-10.2c-1.3-1-2.9-1.5-4.5-1.3c0-1.1-0.5-2.1-1.4-2.7c-1.8-1.7-3.8-3.1-6.1-4.2c-11.2-5.8-23.5-9.3-36.1-10.3
	c-2.2-0.2-4.3-0.1-6.4,0.5c-0.8,0.2-1.9,0.5-2,1.4C75.6,8.7,75,8.2,74.4,8C66.9,6,60,7.2,54,12.2c-1.9,1.3-2.9,3.5-2.8,5.7
	c-0.4,1.3,0.5,2.1,1.3,2.8c1.7,1.5,3.8,2.5,6,3h0.2h0.1c0.2,0,0.5,0.1,0.7,0c-0.2,0-0.4,0.1-0.6,0.1h-0.1h-0.1
	c-1.2,0.4-2.3,1-3.4,1.6c-5,2.9-8.5,6.9-9.2,12.8c-0.5,4-0.1,8,1.1,11.8l0.1,0.3l0,0c0,0,0,0.1,0,0.2c0.7,2.1,1.7,4.1,2.8,6
	c1.6,2.9,3.7,5.5,6.3,7.6c0,0,0.1,0,0.1,0.1c0,0,0,0,0,0.1l0,0l-0.2-0.1L56.2,64c-3.3-1.4-7-1.9-10.5-1.4l0,0h-0.1
	c-3.6,0.8-5.9,3.2-7.6,6.3c-2.1,3.9-2.9,8.4-2.3,12.8c0.8,6.6,3.5,12.8,7.9,17.7c0.2,0.3,0.5,0.4,0.8,0.5c0.6,0.5,1.1,1.1,1.7,1.6
	c5.4,4.9,11.4,8.3,19,8.3c6.3,0,10.1-3,11.5-9.2c0.1-0.3,0-0.7,0.4-0.8c0.3,1.7,0.8,3.4,1.3,5c1.6,4.8,4.1,9.2,7.3,13
	c0,0.2,0.1,0.3,0.2,0.5c4.2,5,10.1,8.3,16.6,9.4c0.4,0.1,0.9,0,1.2-0.2c4.8,0.1,8.8-1.9,12.4-5l0,0c0.1,0,0.3-0.3,0.4,0
	c-0.3,0.4-0.5,0.9-0.8,1.3c-3.7,5.6-6.9,11.5-9.5,17.7c-1.5,3.6-2.9,7.2-3,11.2c0,2.7,1.1,3.7,3.8,3.5c3.9-0.2,7.4-1.8,10.7-3.7
	c20.3-11.5,33.6-28.6,40.5-50.8C159.6,96.5,160.6,91.3,159.4,86z M76.8,87.8l-0.5-0.3c-1.7-7.3-5.8-13.7-11.6-18.4
	c6.6,2.5,14,2.5,20.6,0C80.1,74.3,77.8,80.7,76.8,87.8L76.8,87.8z M71.3,23.1c2.1-0.7,4.1-1.7,5.9-3c0.9-0.7,1.7-1.4,2.5-2.3
	c1.3-1.5,2-3.2,1-5.1c0.4-0.4,0.7-0.1,1,0c5.1,2.6,10.4,4.7,15.9,6.5c0.2,0.1,0.3,0.1,0.4,0.2l-1.5,1.4c-0.4,0.3-0.8,0.5-1.2,0.7
	c-3.9,1.6-5.4,4.1-4.9,8.3c0.2,1.8,0.6,3.7,1.2,5.4c0.2,0.4,0.3,0.8,0.2,1.2C87.2,29.3,79.7,24.5,71.3,23.1z M109.8,70.2
	c-5.7-4-12-5.7-18.9-4c-0.3,0.1-0.7,0.1-1,0c6.5-6.9,7.4-15,4.9-23.8c3.7,5.7,8.7,10.3,14.6,13.6c6,3.2,12.3,5.2,19.5,4
	c-2.5,2.4-4.4,5.3-5.6,8.5c-2,5.2-2.5,10.9-1.5,16.5c0.1,0.3,0.1,0.5,0.1,0.8c-0.1,0-0.2,0-0.3,0C119.1,79.5,115.4,74.1,109.8,70.2z
	 M121.6,115.2c-0.1-0.1-0.1-0.2-0.1-0.2c3.2-7.1,4-15,2.3-22.5c0-0.1,0-0.2,0-0.3c0.1-0.2,0.1-0.4,0.2-0.5c0.9,2,2.2,3.9,3.7,5.6
	c1.7,2,4.6,2.6,7,1.5c0.3-0.1,0.7-0.2,1-0.3c0.1,0,0.1,0,0.3,0.1C130.8,103.8,126,109.3,121.6,115.2L121.6,115.2z"/>
<path class="st0" d="M211.4,73.6c0.2,5.9,0.3,11.7,0.5,17.5c0.1,3.9,0.2,7.8,0.2,11.7c0,10.8,0,21.6,0,32.4c0,1.6-0.3,3.1-0.7,4.6
	c-0.7,2.9-3,3.7-5.6,4.1c-3,0.3-5.9,0.4-8.9,0.3c-0.6,0-0.8-0.1-0.8-0.8c0.1-4.9,0.2-9.9,0.3-14.8c0.1-26.2,0.1-52.3,0.1-78.5
	c0-0.8-0.3-1.6-0.8-2.2c-0.5-0.5-0.8-1-1-1.7c-0.1-1,0-1.8,1.2-2.1c3.9-1.1,7.9-1.5,11.9-1.2c1.5,0.2,2.9,0.8,4.2,1.6
	c0.3,0.2,0.5,0.4,0.7,0.8c5.1,9.9,11,19.3,16.4,29c5.1,9.1,10.3,18,14.9,27.4c1.7,3.6,3.4,7.1,5.2,10.8c0-2.8,0-5.5,0-8.2
	c0-3.5-0.2-6.9-0.2-10.4c0-13.5,0-27.1,0-40.6c-0.1-2.4,0.3-4.8,1-7.1c0.2-0.7,0.7-1.3,1.4-1.6c2.3-1.5,4.9-1.6,7.5-1.7
	c1.6,0,3.2,0,4.8,0c0.9,0,1.2,0.2,1.2,1.2c-0.1,6-0.2,12.1-0.3,18.2c0,1.9,0,3.7,0,5.6c0,24.2,0,48.4,0,72.5
	c0.1,0.9-0.4,1.8-1.3,2.2c-4.2,2.7-8.7,2.6-13.4,1.4c-0.5-0.1-0.9-0.4-1.1-0.8c-6.9-12.8-14.5-25.2-21.6-37.9
	c-5.5-9.8-10.3-19.9-14.9-30.2C212.1,74.4,211.8,73.9,211.4,73.6z"/>
<path class="st0" d="M520.4,88.9c-2.4-7.3-6.7-13.1-13.9-16.3c-4.7-2-9.9-2.8-15-2.5c-12.1,0.5-20.8,6-25.6,17.2
	c-2.9,6.7-3.7,13.8-3.7,21c-0.1,6.2,0.7,12.4,2.4,18.3c2.2,6.9,6,12.6,12.7,16c5.3,2.6,11.3,3.6,17.1,3.1
	c10.9-0.6,18.8-5.9,23.8-15.6c2.8-5.8,4.4-12.1,4.6-18.6C523.3,103.9,522.8,96.3,520.4,88.9z M506.2,107.2c0,6.3-0.4,11.9-2.1,17.4
	c-0.8,2.6-2.1,4.9-3.9,6.9c-4,4.1-10.7,4.2-14.8,0.1c-0.2-0.2-0.3-0.3-0.5-0.5c-2.4-2.8-4-6.3-4.5-10c-1.7-9.4-1.9-18.8,0.6-28.1
	c0.7-3,2.2-5.7,4.3-8c4-4.2,10.7-4.4,14.9-0.4c0.5,0.5,0.9,1,1.3,1.5c2.6,3.5,3.5,7.6,4.1,11.7C506.1,100.9,506.2,104,506.2,107.2
	L506.2,107.2z"/>
<path class="st0" d="M631.2,87.4c-1.4-6.9-5-12.4-11.7-15.3c-3.8-1.5-7.9-2.2-11.9-1.9c-11.7,0.3-20.2,5.6-24.9,16.5
	c-2.7,6.1-3.6,12.6-4,19.2c-0.5,7.1,0.1,14.2,1.9,21.1c2.6,9.1,8.1,15.4,17.4,17.8c7.3,1.8,15,1.6,22.3-0.4c3.2-0.8,6.1-2.5,8.3-5
	c1-1,1.4-2.3,1.2-3.7c-0.3-1.9-0.7-3.7-1.1-5.6c-0.3-1.1-0.6-1.1-1.5-0.6c-5.7,2.9-12.1,4.2-18.6,3.8c-5.5-0.4-9.6-3-11.9-8.3
	c-1.3-3.4-2-7.1-2.1-10.7c0-0.9,0.5-0.8,1.1-0.8c3.1,0,6.1,0,9.2,0c4.1-0.1,8.2-0.3,12.3-0.7c4.5-0.3,8.9-1.6,12.9-3.5
	c0.8-0.3,1.4-1.1,1.5-2.1C632.6,100.3,632.5,93.8,631.2,87.4z M616.4,99.8c-0.1,1-1,1.8-2,1.8c-2.1,0.3-4.3,0.3-6.5,0.4
	c-1.3,0.1-2.6,0-3.9,0v0.1c-2.7,0-5.4,0-8.2,0c-0.7,0-0.9-0.2-0.8-0.9c0.4-5,1.4-9.9,4.1-14.3c1-1.8,2.5-3.3,4.3-4.4
	c3.6-2.3,8.4-1.2,10.7,2.4c0.3,0.4,0.5,0.8,0.6,1.2c0.8,1.7,1.3,3.6,1.5,5.5C616.7,94.3,616.8,97,616.4,99.8L616.4,99.8z"/>
<path class="st0" d="M330.9,88c-1.2-6.6-4.4-12.1-10.6-15.3c-4.3-2.2-8.9-2.7-13.6-2.5c-11.2,0.4-19.4,5.4-24.2,15.8
	c-2.5,5.8-3.9,11.9-4.2,18.2c-0.5,7.5-0.3,14.9,1.7,22.2c2.7,9.8,8.6,16.3,18.7,18.5c6.5,1.3,13.3,1.2,19.8-0.4
	c3.2-0.7,6.2-2.2,8.7-4.3c1.6-1.5,2.6-3.2,2-5.5c-0.4-1.6-0.7-3.2-1-4.8c-0.2-1-0.5-1.1-1.4-0.7c-5.7,3-12.1,4.3-18.5,3.8
	c-5.9-0.4-10.1-3.3-12.2-8.9c-1.1-3.2-1.7-6.5-1.8-9.9c0-0.8,0.2-1.1,1.1-1.1c3.1,0,6.1,0,9.2,0c4.8-0.2,9.6-0.3,14.4-0.9
	c3.9-0.5,7.7-1.6,11.2-3.5c0.7-0.3,1.1-0.9,1.2-1.6C332.1,100.8,332,94.3,330.9,88z M316,99.6c0,1.1-0.9,2-2,2c0,0-0.1,0-0.1,0
	c-3,0.3-5.9,0.4-8.9,0.5c-0.4,0-0.9,0-1.3,0l0,0h-8.2c-0.6,0-1,0-0.9-0.8c0.5-4.5,1.2-9,3.4-13.1c1.5-2.9,3.5-5.3,6.6-6.4
	c3.4-1.2,7.2,0.1,9.1,3.2c1.5,2.6,2.2,5.5,2.3,8.5C316.2,95.5,316.2,97.6,316,99.6z"/>
<path class="st0" d="M367.3,118.6c-1.8,3.3-3.5,6.4-5.2,9.5c-2.6,4.8-5.5,9.4-8.4,14c-0.8,1.2-2.1,1.9-3.5,1.9
	c-4.3,0.3-8.6,0.2-12.9-0.5c0.9-2.2,1.4-4.4,2.6-6.3c6.2-9.7,12.6-19.3,18.7-29.1c0.7-0.9,0.7-2.2,0-3.1
	c-5.8-9.4-11.9-18.8-17.3-28.4c-2-3.6-1.7-2.8,1.5-4.2c3.7-1.6,7.7-1.4,11.6-1.4c0.5,0,1,0.3,1.3,0.7c1.9,1.9,3.4,4,4.6,6.3
	c3,5.3,5.9,10.7,9.2,16.1c0.9-1.6,1.7-3.1,2.5-4.6c2.7-5.2,5.9-10.1,9.1-15.1c1.8-2.8,4.1-3.5,7-3.3c3,0.2,5.9,0.6,8.9,1.1
	c1.3,0.2,1.1,0.6,0.7,1.5c-1.7,3.8-4.2,7-6.4,10.5c-4.3,6.8-8.7,13.6-13.1,20.4c-0.4,0.5-0.4,1.3,0,1.8c6.7,10.8,13.3,21.7,20,32.6
	c0.3,0.5,0.6,1.1,0.9,1.7c0.6,1.4,0.3,2.1-1.3,2.5c-3.6,0.7-7.3,1-11,0.7c-3.6-0.2-5.9-1.6-7.8-4.9
	C375.2,132.4,371.3,125.6,367.3,118.6z"/>
<path class="st1" d="M59,23.9c0,0.1,0,0.2-0.1,0.3c-3.1,1.3-5.9,3.1-8.3,5.5c-2.4,2.5-3.9,5.8-4.2,9.3c-0.4,3.8,0,7.6,1.2,11.3
	c-0.1,0.1-0.1,0.3-0.2,0.4c-0.7,0.9-1.6,1.7-2.6,2.4c-1.9,1.5-3.9,2.8-6.1,3.9c2.8,0.1,4.4,2,5.9,3.9c0.4,0.6,1.1,1.1,1,1.9
	c0,0.1,0,0.2,0,0.2c-6.5,2.3-9,7.4-9.6,13.8c-0.8,8.2,2.1,15.3,7,21.6l1.2,1.6c-1.6,2.8-3.7,5.2-6.2,7.3c-3.9,3-7.5,2.8-11-0.7
	c-2.9-3-4.9-6.8-5.7-10.8c-2.6-10.9-1.3-21.2,4.7-30.8c1.4-2.1,3.1-4,5.1-5.5c-1.8,0.2-3.4,0.6-4.9,0.6c-2.7,0-5.3-0.3-6.9-2.9
	c-0.5-0.6-0.3-1.3-0.1-2c0.5-2.2,0.7-4.3,0.7-6.5c0.1-1.5-0.4-3-1.4-4.2c1.7-5.8,4.8-11.2,9-15.5c4.8-5,10.3-8.8,17.2-10.4
	c2.1-0.5,4.4-0.6,6.5-0.5c0.5,2.5,2.5,3.4,4.4,4.4c1,0.4,2,0.8,3,1.1c0.1,0.1,0.1,0.2,0.2,0.3C59,23.8,59,23.9,59,23.9z"/>
<path class="st0" d="M405.3,108.7c0-7.4,1.1-15.3,5-22.7c4.8-9.3,12.4-14.5,22.8-15.7c6.1-0.7,12-0.3,17.6,2.3
	c1.6,0.7,3,1.6,4.3,2.8c0.6,0.5,1,1.4,0.8,2.2c-0.3,2.3-0.9,4.5-1.9,6.6c-0.2,0.5-0.7,0.9-1.3,0.8c-2.3,0-4.5-0.4-6.6-1.3
	c-3.3-1.5-7-1.9-10.6-1.3c-5.1,1.1-8.4,4.3-10.5,8.9c-1.8,4.2-2.8,8.7-2.9,13.2c-0.3,6-0.1,12,1.8,17.8c2.7,8.1,8.7,12,17.2,11.2
	c4-0.4,7.8-1.4,11.4-3.1c0.9-0.4,1.2-0.3,1.4,0.6c0.3,1.2,0.8,2.4,0.9,3.6c0.4,3.7-1.6,6.2-4.5,8c-3.3,2.1-7,2.7-10.9,3
	c-5,0.4-10-0.1-14.9-1.4c-9-2.6-14.3-8.9-17-17.7C405.8,121.1,405.4,115.3,405.3,108.7z"/>
<path class="st0" d="M551.3,113.5c0,8,0.1,16.1,0,24.1c-0.1,4.5-1.8,5.7-5.9,6.3c-3.1,0.3-6.1,0.4-9.2,0.3c-0.8,0-1-0.3-1-1
	c0.1-8.7,0.2-17.3,0.3-25.9c0.1-6.3,0.1-12.5,0.1-18.8c0-4.3,0.3-8.6-0.1-12.8c-0.2-2.5-0.7-4.9-1.5-7.2c-0.3-0.8-0.3-1.3,0.5-1.7
	c2.7-1.7,5.2-3.6,8.6-3.4c1.9,0.1,3.5,0.6,4.4,2.4c0.4,0.8,0.8,0.3,1.2,0c3.6-2.3,7.6-3.9,11.8-4.8c3.2-0.6,6.4-0.3,9.4,0.9
	c2.7,1.1,3.5,2.3,3.2,5.1c-0.3,2.4-1,4.7-2.1,6.9c-0.3,0.7-1.1,1.2-1.8,1.1c-2,0-4.1-0.1-6.1-0.3c-4.1-0.7-8.2,0.5-11.3,3.3
	c-0.4,0.4-0.6,1-0.5,1.5C551.4,97.3,551.4,105.4,551.3,113.5L551.3,113.5z"/>
<path class="st2" d="M56.3,136.9c1.1,0.5,2.2,0.9,3.4,1.2c5.9,2.1,11.1,5.8,15,10.7c0.8,1,1.5,2.2,2,3.5c0.8,2.4,0.3,4-1.9,5.2
	c-2.2,1.1-4.6,1.6-7,1.4c-8.1-0.3-15.9-3.4-22-8.7c-0.9-1-1.9-1.9-3-2.8c-1.5-1.9-2.8-4-2.7-6.6c-0.2-2,1.1-3.9,3.1-4.4
	c2.8-0.9,5.7-1.2,8.6-0.7C53.2,135.9,54.8,136.3,56.3,136.9z"/>
<path class="st1" d="M56.3,136.9c-1.5,0.1-3-0.5-4.5-0.7c-2.8-0.4-5.6-0.2-8.3,0.5c-3.2,1-3.7,2.9-3.1,5.8c0.3,1.4,0.9,2.7,1.8,3.9
	c0.2,0.3,0.7,0.6,0.4,1.1c-9.5-5-17.6-12.1-23.9-20.8c1.9-0.6,2.1-2.1,2.2-3.8c0.1-2.4,0-4.7-0.3-7.1c0-0.5-0.2-0.9,0.2-1.3
	c5.6,1.4,10.7,4,15.6,7C43.6,125.8,50.3,131,56.3,136.9z"/>
<path class="st2" d="M20.7,114.5c0.4,2.5,0.5,5.1,0.5,7.7c0,0.9-0.1,1.8-0.3,2.7c-0.3,1.6-0.6,1.9-2.3,1.9c-2.9-1.9-4.4-4.9-5.8-7.8
	c-5.4-11.3-8.5-23.6-9.1-36.2c-0.1-2,0.1-4.1,0.5-6.1C4.5,76.1,4.7,75.5,5,75c0.3-0.7,1.1-0.9,1.8-0.6c0.1,0.1,0.2,0.1,0.3,0.2
	c0.7,0.6,1.3,1.2,1.8,2c3,4.7,4.9,10,6.7,15.3C18.1,99.3,19.8,106.8,20.7,114.5z"/>
<path class="st1" d="M85.6,117.9c2.3,2.4,4.9,4.5,7.7,6.3c3.1,1.9,6.7,3.1,10.3,3.4c-3.8,4-8.6,6.9-13.9,8.4
	c-5.1,1.6-10.3,2.4-15.5,0.9c-1.5-0.4-2.8-1.1-3.9-2.2c-1.4-1.2-1.7-3.2-0.8-4.7c1-2,2.3-3.8,4-5.2
	C76.9,121.6,81.1,119.3,85.6,117.9z"/>
<path class="st2" d="M18.5,44.4c1.3,0.4,1.5,1.5,1.6,2.7c0.2,2.8,0.1,5.6-0.6,8.3c-0.1,0.6-0.2,1.2-0.2,1.8
	c-0.4,0.3-0.4,0.7-0.5,1.1c-1.4,4.5-3.4,8.9-5.9,12.9c-0.6,0.9-1.3,1.7-2.1,2.4c-0.7,0.7-1.7,0.9-2.6,0.6c-1-0.4-1.2-1.4-1.2-2.3
	c-0.2-2.2,0-4.5,0.5-6.7c1.2-6.1,3.5-12,6.8-17.4C15.3,46.2,16.4,44.6,18.5,44.4z"/>
<path class="st1" d="M159.4,86c-1.5-2.1-2.2-2.3-4.7-1.5c-2.9,0.9-5.3,2.7-7.7,4.4c-0.3,0.2-0.5,0.3-0.8,0.5c0-0.1-0.1-0.1-0.1-0.2
	c-0.3-0.5-0.6-1-0.9-1.5l-0.1-0.3c1-2.8,1.4-5.8,1.4-8.8c-0.1-2.5-0.6-4.9-1.4-7.2c-0.3-0.4-0.3-1-0.3-1.5c0-0.1,0-0.2-0.1-0.4
	c0-0.6,0.2-1.1,0.7-1.4l0.2-0.1c1.3,1.6,2.5,3.1,3.9,4.7c1.7,2.1,3.7,4,5.9,5.5c1.9,1.2,2.6,1.1,4-0.6c0.1,0.1,0.3,0.1,0.4,0.2
	C160.2,80.6,160.1,83.3,159.4,86z"/>
<path class="st3" d="M98,19.5c-0.1,0.9-0.8,1.1-1.5,1.4L98,19.5z"/>
<path class="st1" d="M111.8,23c4,0.6,8.1,1.4,12.2,1.2c0.9,0,1.9-0.2,2.8-0.3c-0.1,0.9-0.1,1.9-0.1,2.8c0.4,3,1.1,6,2.1,8.9
	c0.1,0.4,0.2,0.8,0.3,1.2C124.6,30.7,118.6,26,111.8,23z"/>
<path class="st4" d="M136.5,53l-0.3,0.1c-0.6,0.2-1.2,0.4-1.8,0.5c-0.1,0-0.2,0-0.3,0v-4.7l0.2-0.1C135.1,50.2,135.8,51.6,136.5,53z
	"/>
<path class="st5" d="M101.7,20.5c0,0.1,0,0.2,0,0.4h-5.2l1.5-1.4L101.7,20.5z"/>
</svg>
